%YAML 1.1
%TAG !u! tag:unity3d.com,2011:
--- !u!114 &11400000
MonoBehaviour:
  m_ObjectHideFlags: 0
  m_PrefabParentObject: {fileID: 0}
  m_PrefabInternal: {fileID: 0}
  m_GameObject: {fileID: 0}
  m_Enabled: 1
  m_EditorHideFlags: 0
  m_Script: {fileID: 11500000, guid: 1462d79d9a4b9ab4b9c82c94132e1e69, type: 3}
  m_Name: 02 - Courtyard
  m_EditorClassIdentifier: 
  leftEyeCubemap: {fileID: 8900000, guid: 485eb8972b841c8458a282ebc375583e, type: 3}
  rightEyeCubemap: {fileID: 8900000, guid: 14fe30f780ace0740b6abd8ec22dbdf8, type: 3}
